generator_accuracy,predictor_accuracy
99.37499761581421,98.7999975681305
99.6874988079071,99.29999709129333
98.7500011920929,98.00000190734863
98.1249988079071,98.1000006198883
100.0,99.90000128746033
100.0,100.0
100.0,99.80000257492065
99.37499761581421,98.50000143051147
97.50000238418579,97.39999771118164
98.4375,98.4000027179718
99.6874988079071,99.50000047683716
96.875,92.1999990940094
100.0,99.90000128746033
98.1249988079071,97.50000238418579
97.81249761581421,96.60000205039978
96.5624988079071,95.39999961853027
98.1249988079071,97.79999852180481
97.50000238418579,97.2000002861023
96.5624988079071,95.70000171661377
98.7500011920929,97.60000109672546
98.1249988079071,96.8999981880188
99.37499761581421,98.00000190734863
100.0,99.09999966621399
100.0,99.90000128746033
99.06250238418579,98.29999804496765
98.1249988079071,96.79999947547913
98.4375,97.69999980926514
99.37499761581421,99.29999709129333
90.9375011920929,90.20000100135803
90.9375011920929,89.70000147819519
93.4374988079071,92.10000038146973
92.81250238418579,91.39999747276306
98.1249988079071,98.00000190734863
95.3125,92.69999861717224
96.875,95.99999785423279
99.6874988079071,99.29999709129333
99.37499761581421,98.69999885559082
99.6874988079071,99.50000047683716
97.1875011920929,94.90000009536743
98.7500011920929,98.69999885559082
98.7500011920929,98.29999804496765
95.6250011920929,92.90000200271606
80.62499761581421,78.39999794960022
95.93750238418579,95.70000171661377
80.31250238418579,80.29999732971191
96.5624988079071,96.20000123977661
70.6666648387909,69.40000057220459
96.24999761581421,94.70000267028809
91.8749988079071,89.60000276565552
93.75,93.19999814033508
99.06250238418579,99.00000095367432
99.6874988079071,99.09999966621399
94.68749761581421,94.40000057220459
99.6874988079071,99.40000176429749
91.8749988079071,83.20000171661377
88.7499988079071,88.49999904632568
90.9375011920929,90.89999794960022
98.7500011920929,98.60000014305115
98.4375,96.79999947547913
73.66666793823242,73.1000006198883
71.10000252723694,70.09999752044678
90.13333320617676,88.99999856948853
84.375,83.60000252723694
73.56666922569275,72.79999852180481
87.59999871253967,86.2999975681305
87.93333172798157,86.00000143051147
74.90000128746033,70.99999785423279
82.66666531562805,78.70000004768372
71.5624988079071,71.20000123977661
92.33333468437195,91.60000085830688
92.81250238418579,91.00000262260437
87.5,84.3999981880188
95.93750238418579,95.39999961853027
98.4375,98.00000190734863
78.29999923706055,77.99999713897705
87.5,83.30000042915344
82.18749761581421,81.19999766349792
91.56249761581421,91.20000004768372
89.99999761581421,86.90000176429749
72.2333312034607,72.2000002861023
88.33333253860474,87.5
92.999999721845,92.59999990463257
95.6666648387909,95.49999833106995
97.46666550636292,97.60000109672546
96.13333344459534,95.99999785423279
95.6666648387909,94.9999988079071
71.46666646003723,66.60000085830688
93.53333115577698,86.40000224113464
92.00000166893005,92.00000166893005
97.86666631698608,98.00000190734863
100.0,99.59999918937683
84.7000002861023,83.99999737739563
97.33333587646484,61.799997091293335
97.81249761581421,97.10000157356262
97.81249761581421,97.00000286102295
85.03333330154419,84.50000286102295
99.6874988079071,99.80000257492065
100.0,99.90000128746033
100.0,100.0
100.0,100.0
