-------------------------------------------------------------------------------
Test set: TestPredictNetwork
-------------------------------------------------------------------------------
Tests run: 1, Failures: 0, Errors: 0, Skipped: 0, Time elapsed: 137.428 sec
